<svg width="14" height="25" viewBox="0 0 14 25" fill="none" xmlns="http://www.w3.org/2000/svg">
<path d="M2.47059 0H11.5294C12.894 0 14 1.15777 14 2.58621V22.4138C14 23.8422 12.894 25 11.5294 25H2.47059C1.10601 25 0 23.8422 0 22.4138V2.58621C0 1.15821 1.10601 0 2.47059 0Z" fill="#4B78CD"/>
<rect y="3" width="14" height="19" fill="#6099FA"/>
<path d="M10.997 7.65875H2.85107V18.8954L4.88756 17.2307L6.92405 18.8954L8.96054 17.2307L10.997 18.8954V7.65875Z" fill="#AECCFF"/>
<path d="M4.48079 8.90723H6.51728C6.74209 8.90723 6.92459 9.09365 6.92459 9.32341C6.92459 9.55311 6.74214 9.73959 6.51728 9.73959H4.48079C4.25598 9.73959 4.07349 9.55316 4.07349 9.32341C4.07349 9.0937 4.25598 8.90723 4.48079 8.90723Z" fill="white"/>
<path d="M4.4803 10.572H6.9241C7.14891 10.572 7.33141 10.7584 7.33141 10.9881C7.33141 11.2178 7.14896 11.4043 6.9241 11.4043H4.4803C4.25549 11.4043 4.073 11.2179 4.073 10.9881C4.073 10.7584 4.25549 10.572 4.4803 10.572Z" fill="white"/>
<rect x="6" y="23" width="2" height="1" fill="#AECCFF"/>
</svg>
