<svg width="18" height="25" viewBox="0 0 18 25" fill="none" xmlns="http://www.w3.org/2000/svg">
<path d="M0.000973221 12.4011C0.000973221 10.9971 0.112446 10.1062 2.8644 7.93632C5.14322 6.13854 12.446 1.64592e-07 12.446 1.64592e-07V10.2474H18.0001V25H1.7352C1.27544 24.9986 0.8349 24.805 0.509802 24.4616C0.184704 24.1182 0.0014684 23.6528 0.000121447 23.1672L0.000973221 12.4011Z" fill="#FFCF01"/>
<path d="M12.4454 10.2491V16.1872L2.23999 23.5321L15.1437 19.0969V10.2491H12.4454Z" fill="#D3AB07"/>
<path d="M7.78264 9.94177C8.3783 9.19029 9.25137 8.92512 9.7296 9.3494C10.2078 9.77368 10.1125 10.7265 9.51602 11.478C8.9195 12.2294 8.04729 12.4937 7.56906 12.0694C7.09083 11.6452 7.18613 10.6923 7.78264 9.94177Z" fill="#231F20"/>
</svg>
